samuel keith BRANCO 20 cavalo.txt
0 1
0 1
0 0
4 7 4 7 0 0
3 7 3 7 0 0
5 7 5 7 0 0
2 7 2 7 0 0
1 7 4 4 0 1
6 7 6 7 0 0
0 7 0 7 0 0
7 7 7 7 0 0
0 6 0 6 0 0
0 1 0 1 0 0
1 6 1 6 0 0
1 1 1 1 0 0
2 6 2 6 0 0
2 1 2 1 0 0
3 6 3 6 0 0
3 1 3 1 0 0
4 6 4 6 0 0
4 1 4 1 0 0
5 6 5 6 0 0
5 1 5 1 0 0
6 6 6 6 0 0
6 1 6 1 0 0
7 6 7 6 0 0
7 1 7 1 0 0
4 0 4 0 0 0
3 0 3 0 0 0
2 0 2 0 0 0
5 0 5 0 0 0
1 0 1 0 0 0
6 0 6 0 0 0
7 0 7 0 0 0
0 0 0 0 0 0

