1
4 4 4 3
4 7  1
4 4  2
5 7  3
2 7  3
4 3  5
6 7  5
0 7  4
7 7  4
0 6  6
0 1 -6
1 6  6
1 1 -6
2 6  6
2 1 -6
3 6  6
3 1 -6
4 6  6
4 1 -6
5 6  6
5 1 -6
6 6  6
6 1 -6
7 6  6
7 1 -6
4 0 -1
3 0 -2
2 0 -3
5 0 -3
1 0 -5
6 0 -5
7 0 -4
0 0 -4
4 4 4 2
4 7  1
4 4  2
5 7  3
2 7  3
4 3  5
6 7  5
0 7  4
7 7  4
0 6  6
0 1 -6
1 6  6
1 1 -6
2 6  6
2 1 -6
3 6  6
3 1 -6
4 6  6
4 1 -6
5 6  6
5 1 -6
6 6  6
6 1 -6
7 6  6
7 1 -6
4 0 -1
3 0 -2
2 0 -3
5 0 -3
1 0 -5
6 0 -5
7 0 -4
0 0 -4